…
# **Ejemplo 3: Agrupar por región y calcular el ingreso per cápita promedio**


``` r
data_reg <- eph_data %>%
  group_by(AGLOMERADO) %>%
  summarise(promedio_IPCF = mean(IPCF, na.rm = TRUE))

# Ver resultado
print(data_reg)
```

```
## # A tibble: 32 × 2
##    AGLOMERADO promedio_IPCF
##         <int>         <dbl>
##  1          2        67298.
##  2          3        77973.
##  3          4        81027.
##  4          5        53217.
##  5          6        74682.
##  6          7        61819.
##  7          8        49492.
##  8          9       135385.
##  9         10        74038.
## 10         12        99132.
## # ℹ 22 more rows
```
…
# **Ejemplo 3: Agrupar por región y calcular el ingreso per cápita promedio**


``` r
data_reg <- eph_data %>%
  group_by(AGLOMERADO) %>%
  summarise(promedio_IPCF = mean(IPCF, na.rm = TRUE))

# Ver resultado
print(data_reg)
```

```
## # A tibble: 32 × 2
##    AGLOMERADO promedio_IPCF
##         <int>         <dbl>
##  1          2        67298.
##  2          3        77973.
##  3          4        81027.
##  4          5        53217.
##  5          6        74682.
##  6          7        61819.
##  7          8        49492.
##  8          9       135385.
##  9         10        74038.
## 10         12        99132.
## # ℹ 22 more rows
```
…
``` r
# Calcular el ingreso y la edad promedio por aglomerado
data_summarise <- eph_data %>%
  group_by(AGLOMERADO) %>%
  summarise(
    ingreso_promedio = mean(P21, na.rm = TRUE),
    edad_promedio = mean(CH06, na.rm = TRUE)
  )

# Ver resultado
print(data_summarise)
```

```
## # A tibble: 32 × 3
##    AGLOMERADO ingreso_promedio edad_promedio
##         <int>            <dbl>         <dbl>
##  1          2             53.0          35.8
##  2          3             60.5          38.0
##  3          4             62.5          37.4
##  4          5             40.6          36.6
##  5          6             53.2          36.8
##  6          7             45.2          35.7
##  7          8             35.3          34.8
##  8          9             98.5          34.1
##  9         10             51.8          36.9
## 10         12             57.9          34.4
## # ℹ 22 more rows
```
…
``` r
# Cargar el paquete
library(tibble)

# Convertir eph_data en un tibble
eph_tibble <- as_tibble(eph_data)

# Ver la estructura
eph_tibble
```

```
## # A tibble: 48,335 × 181
##    CODUSU    ANO4 TRIMESTRE NRO_HOGAR COMPONENTE   H15 REGION MAS_500 AGLOMERADO
##    <chr>    <int>     <int>     <int>      <int> <int>  <int> <chr>        <int>
##  1 TQRMNOQ…  2023         3         1          4     0     44 N               91
##  2 TQRMNOP…  2023         3         1         12     0     43 N               14
##  3 TQRMNOQ…  2023         3         1          4     0      1 S               33
##  4 TQRMNOR…  2023         3         1          3     0     40 S               23
##  5 TQRMNOR…  2023         3         1          6     0     41 N               12
##  6 TQRMNOQ…  2023         3         1          5     0     44 N                9
##  7 TQRMNOR…  2023         3         1          5     0     43 N               14
##  8 TQRMNOP…  2023         3         1          3     0     43 N                3
##  9 TQRMNOS…  2023         3         1          5     0     43 N               36
## 10 TQRMNOP…  2023         3         1          6     0     43 S                2
## # ℹ 48,325 more rows
## # ℹ 172 more variables: PONDERA <int>, CH03 <int>, CH04 <int>, CH05 <chr>,
## #   CH06 <int>, CH07 <int>, CH08 <int>, CH09 <int>, CH10 <int>, CH11 <int>,
## #   CH12 <int>, CH13 <int>, CH14 <chr>, CH15 <int>, CH15_COD <int>, CH16 <int>,
## #   CH16_COD <int>, NIVEL_ED <int>, ESTADO <int>, CAT_OCUP <int>,
## #   CAT_INAC <int>, IMPUTA <int>, PP02C1 <int>, PP02C2 <int>, PP02C3 <int>,
## #   PP02C4 <int>, PP02C5 <int>, PP02C6 <int>, PP02C7 <int>, PP02C8 <int>, …
```
…
# **Ejemplo 3: Seleccionar columnas y filas**


``` r
# Filtrar y seleccionar columnas
eph_filtrado <- eph_tibble %>% 
  select(CODUSU, CH06, P21) %>%  # Seleccionar columnas
  filter(CH06 >= 30)              # Filtrar por edad

eph_filtrado
```

```
## # A tibble: 26,918 × 3
##    CODUSU                         CH06   P21
##    <chr>                         <int> <dbl>
##  1 TQRMNOWVQHLOKRCDEOHCH00808310    30   120
##  2 TQSMNOQVWHKOKRCDEGKDB00789329    30     0
##  3 TQRMNOXUTHMOKPCDEGIBJ00809807    30    56
##  4 TQRMNOSTVHLOLMCDEGIBJ00804772    30     0
##  5 TQRMNOQWPHKMKOCDEHJGH00790199    30     0
##  6 TQRMNOQXXHJMLPCDEIJAH00792158    30     0
##  7 TQRMNOSPTHMKKSCDEGIBJ00809809    30   220
##  8 TQRMNOPUTHLMLNCDEGIBJ00809810    30    30
##  9 TQRMNOUTQHKNLSCDEIIAD00791518    30   150
## 10 TQRMNORSVHJOLPCDEHLEH00784594    30    90
## # ℹ 26,908 more rows
```
…
